{
  "status": 200,
  "data": [
    {
      "id_sm": 52,
      "no_surat": "00764",
      "tgl_ns": "2025-12-14",
      "no_asal": "004/YALWASH-9/XII/2025",
      "tgl_no_asal": "2025-12-26",
      "tgl_no_asal2": "2025-12-26",
      "tgl_surat": "2025-12-26",
      "pengirim": "SMP Al Wathoniyah 9",
      "penerima": "Bag 004",
      "perihal": "R Bag 004",
      "token_lampiran": null,
      "token_lampiran_tu": null,
      "bagian": null,
      "disposisi": null,
      "id_user": "50",
      "kode_user": "MN-03-STF-006",
      "kode_user_approved": null,
      "id_user_approved": 0,
      "id_instansi": "10",
      "id_instansi_approved": null,
      "id_user_disposisi_leader": null,
      "tgl_sm": "2025-12-14",
      "lampiran": null,
      "status": "Dokumen",
      "sifat": "Biasa",
      "dibaca": "1",
      "dibaca_pimpinan": "0",
      "kode_user_pimpinan": null,
      "tgl_ajuan": null,
      "tgl_ajuan_delegate": null,
      "segera": null,
      "biasa": null,
      "catatan": null,
      "tgl_disposisi": null,
      "tgl_approved": null,
      "catatan_koreksi": null,
      "is_notes_pimpinan": "0",
      "status_tu": "0",
      "status_instansi": "0",
      "tgl_delegasi_rapat": null,
      "tgl_agenda_rapat": "2025-12-14",
      "tgl_hasil_rapat": null,
      "delegasi_pimpinan": "0",
      "disposisi_rapat": null,
      "delegasi_tu": null,
      "ruang_rapat": "null",
      "penanda_tangan_rapat": null,
      "tembusan_rapat": null,
      "jam_rapat": null,
      "bahasan_rapat": null,
      "pimpinan_rapat": "null",
      "peserta_rapat": null,
      "ditujukan": null,
      "instruksi_kerja": "null",
      "disposisi_memo": "null",
      "kategori_berkas": "UND",
      "kategori_undangan": "YS-01-BND-001",
      "kategori_laporan": null,
      "id_status_rapat": "1",
      "kode_user_ditujukan_memo": null,
      "kategori_surat": "UND",
      "kode_berkas": "Undangan",
      "klasifikasi_surat": "YALWASH-9/XII/2025",
      "kategori_kode": "Undangan",
      "disposisi_ktu_leader": null,
      "created_at": "2025-12-14T04:23:21.000000Z",
      "updated_at": "2025-12-14T04:23:21.000000Z",
      "deleted_at": null,
      "user": {
        "id_user": 50,
        "username": "admin",
        "nama_lengkap": "Staf Sarpras 4"
      },
      "lampirans": [
        {
          "id_lampiran": "727",
          "no_surat": "00764",
          "token_lampiran": "245c08692ece1c584c45cebc20471cda",
          "nama_berkas": "4a242ae5-169f-41b3-85f9-6bb630a8c2d36358763296720956136.jpg",
          "ukuran": "64664"
        },
        {
          "id_lampiran": "728",
          "no_surat": "00764",
          "token_lampiran": "245c08692ece1c584c45cebc20471cda",
          "nama_berkas": "4a242ae5-169f-41b3-85f9-6bb630a8c2d36358763296720956136.jpg",
          "ukuran": "64664"
        }
      ]
    },

    {
      "id_sm": 50,
      "no_surat": "00762",
      "tgl_ns": "2025-12-14",
      "no_asal": "002/YALWASH-9/XII/2025",
      "tgl_no_asal": "2025-12-13",
      "tgl_no_asal2": "2025-12-13",
      "tgl_surat": "2025-12-13",
      "pengirim": "SMP Al Wathoniyah 9",
      "penerima": "Bag 002",
      "perihal": "R Bag 002",
      "token_lampiran": null,
      "token_lampiran_tu": null,
      "bagian": null,
      "disposisi": null,
      "id_user": "50",
      "kode_user": "MN-03-STF-006",
      "kode_user_approved": null,
      "id_user_approved": 0,
      "id_instansi": "10",
      "id_instansi_approved": null,
      "id_user_disposisi_leader": null,
      "tgl_sm": "2025-12-14",
      "lampiran": null,
      "status": "Dokumen",
      "sifat": "Biasa",
      "dibaca": "1",
      "dibaca_pimpinan": "0",
      "kode_user_pimpinan": null,
      "tgl_ajuan": null,
      "tgl_ajuan_delegate": null,
      "segera": null,
      "biasa": null,
      "catatan": null,
      "tgl_disposisi": null,
      "tgl_approved": null,
      "catatan_koreksi": null,
      "is_notes_pimpinan": "0",
      "status_tu": "0",
      "status_instansi": "0",
      "tgl_delegasi_rapat": null,
      "tgl_agenda_rapat": "2025-12-14",
      "tgl_hasil_rapat": null,
      "delegasi_pimpinan": "0",
      "disposisi_rapat": null,
      "delegasi_tu": null,
      "ruang_rapat": "null",
      "penanda_tangan_rapat": null,
      "tembusan_rapat": null,
      "jam_rapat": null,
      "bahasan_rapat": null,
      "pimpinan_rapat": "null",
      "peserta_rapat": null,
      "ditujukan": null,
      "instruksi_kerja": "null",
      "disposisi_memo": "null",
      "kategori_berkas": "B-CC",
      "kategori_undangan": null,
      "kategori_laporan": null,
      "id_status_rapat": "1",
      "kode_user_ditujukan_memo": null,
      "kategori_surat": "B-CC",
      "kode_berkas": "Dokumen",
      "klasifikasi_surat": "YALWASH-9/XII/2025",
      "kategori_kode": "Dokumen",
      "disposisi_ktu_leader": null,
      "created_at": "2025-12-14T03:36:15.000000Z",
      "updated_at": "2025-12-14T03:36:15.000000Z",
      "deleted_at": null,
      "user": {
        "id_user": 50,
        "username": "admin",
        "nama_lengkap": "Staf Sarpras 4"
      },
      "lampirans": [
        {
          "id_lampiran": "723",
          "no_surat": "00762",
          "token_lampiran": "6558daf595d7246454f379cb9d03ec80",
          "nama_berkas": "63d1501e-40db-41bc-84b3-09c10a8d7e515166166442537096077.jpg",
          "ukuran": "64167"
        }
      ]
    }
  ],
  "meta": {
    "current_page": 1,
    "per_page": 15,
    "total": 16,
    "last_page": 2
  },
  "debug_sql": "select * from `tbl_sm` where (`id_user` = 50 or `kode_user` = MN-03-STF-006) and `tbl_sm`.`deleted_at` is null order by `tgl_surat` desc, `id_sm` asc",
  "timestamp": "2025-12-14T04:40:27+00:00"
}
